{
  "address": "0067C4FB7C7C3C29EE0BB0785791C810D869F812",
  "pub_key": {
    "type": "tendermint/PubKeyEd25519",
    "value": "SoeYB18wvsFxCTN8uJnAznVROJ5zoqInowyMr+WjSho="
  },
  "priv_key": {
    "type": "tendermint/PrivKeyEd25519",
    "value": "fKzyoxP73xY9kLwJvMSNlyGarxny+a08PBHKd84KvGdKh5gHXzC+wXEJM3y4mcDOdVE4nnOioiejDIyv5aNKGg=="
  }
}